module libp2p-play

go 1.22.1

require (
	github.com/libp2p/go-libp2p v0.33.2
	github.com/libp2p/go-libp2p-kad-dht v0.25.2
	github.com/libp2p/go-libp2p-pubsub v0.10.1
	github.com/multiformats/go-multiaddr v0.12.4
)

require (
	github.com/benbjohnson/clock v1.3.5 // indirect
	github.com/beorn7/perks v1.0.1 // indirect
	github.com/cespare/xxhash/v2 v2.2.0 // indirect
	github.com/containerd/cgroups v1.1.0 // indirect
	github.com/coreos/go-systemd/v22 v22.5.0 // indirect
	github.com/davidlazar/go-crypto v0.0.0-20200604182044-b73af7476f6c // indirect
	github.com/decred/dcrd/dcrec/secp256k1/v4 v4.2.0 // indirect
	github.com/docker/go-units v0.5.0 // indirect
	github.com/elastic/gosigar v0.14.2 // indirect
	github.com/flynn/noise v1.1.0 // indirect
	github.com/francoispqt/gojay v1.2.13 // indirect
	github.com/go-logr/logr v1.3.0 // indirect
	github.com/go-logr/stdr v1.2.2 // indirect
	github.com/go-task/slim-sprig v0.0.0-20230315185526-52ccab3ef572 // indirect
	github.com/godbus/dbus/v5 v5.1.0 // indirect
	github.com/gogo/protobuf v1.3.2 // indirect
	github.com/google/gopacket v1.1.19 // indirect
	github.com/google/pprof v0.0.0-20240207164012-fb44976bdcd5 // indirect
	github.com/google/uuid v1.4.0 // indirect
	github.com/gorilla/websocket v1.5.1 // indirect
	github.com/hashicorp/errwrap v1.1.0 // indirect
	github.com/hashicorp/go-multierror v1.1.1 // indirect
	github.com/hashicorp/golang-lru v0.5.4 // indirect
	github.com/hashicorp/golang-lru/v2 v2.0.5 // indirect
	github.com/huin/goupnp v1.3.0 // indirect
	github.com/ipfs/boxo v0.10.0 // indirect
	github.com/ipfs/go-cid v0.4.1 // indirect
	github.com/ipfs/go-datastore v0.6.0 // indirect
	github.com/ipfs/go-log v1.0.5 // indirect
	github.com/ipfs/go-log/v2 v2.5.1 // indirect
	github.com/ipld/go-ipld-prime v0.20.0 // indirect
	github.com/jackpal/go-nat-pmp v1.0.2 // indirect
	github.com/jbenet/go-temp-err-catcher v0.1.0 // indirect
	github.com/jbenet/goprocess v0.1.4 // indirect
	github.com/klauspost/compress v1.17.6 // indirect
	github.com/klauspost/cpuid/v2 v2.2.7 // indirect
	github.com/koron/go-ssdp v0.0.4 // indirect
	github.com/libp2p/go-buffer-pool v0.1.0 // indirect
	github.com/libp2p/go-cidranger v1.1.0 // indirect
	github.com/libp2p/go-flow-metrics v0.1.0 // indirect
	github.com/libp2p/go-libp2p-asn-util v0.4.1 // indirect
	github.com/libp2p/go-libp2p-kbucket v0.6.3 // indirect
	github.com/libp2p/go-libp2p-record v0.2.0 // indirect
	github.com/libp2p/go-libp2p-routing-helpers v0.7.2 // indirect
	github.com/libp2p/go-msgio v0.3.0 // indirect
	github.com/libp2p/go-nat v0.2.0 // indirect
	github.com/libp2p/go-netroute v0.2.1 // indirect
	github.com/libp2p/go-reuseport v0.4.0 // indirect
	github.com/libp2p/go-yamux/v4 v4.0.1 // indirect
	github.com/libp2p/zeroconf/v2 v2.2.0 // indirect
	github.com/marten-seemann/tcp v0.0.0-20210406111302-dfbc87cc63fd // indirect
	github.com/mattn/go-isatty v0.0.20 // indirect
	github.com/miekg/dns v1.1.58 // indirect
	github.com/mikioh/tcpinfo v0.0.0-20190314235526-30a79bb1804b // indirect
	github.com/mikioh/tcpopt v0.0.0-20190314235656-172688c1accc // indirect
	github.com/minio/sha256-simd v1.0.1 // indirect
	github.com/mr-tron/base58 v1.2.0 // indirect
	github.com/multiformats/go-base32 v0.1.0 // indirect
	github.com/multiformats/go-base36 v0.2.0 // indirect
	github.com/multiformats/go-multiaddr-dns v0.3.1 // indirect
	github.com/multiformats/go-multiaddr-fmt v0.1.0 // indirect
	github.com/multiformats/go-multibase v0.2.0 // indirect
	github.com/multiformats/go-multicodec v0.9.0 // indirect
	github.com/multiformats/go-multihash v0.2.3 // indirect
	github.com/multiformats/go-multistream v0.5.0 // indirect
	github.com/multiformats/go-varint v0.0.7 // indirect
	github.com/onsi/ginkgo/v2 v2.15.0 // indirect
	github.com/opencontainers/runtime-spec v1.2.0 // indirect
	github.com/opentracing/opentracing-go v1.2.0 // indirect
	github.com/pbnjay/memory v0.0.0-20210728143218-7b4eea64cf58 // indirect
	github.com/pkg/errors v0.9.1 // indirect
	github.com/polydawn/refmt v0.89.0 // indirect
	github.com/prometheus/client_golang v1.18.0 // indirect
	github.com/prometheus/client_model v0.6.0 // indirect
	github.com/prometheus/common v0.47.0 // indirect
	github.com/prometheus/procfs v0.12.0 // indirect
	github.com/quic-go/qpack v0.4.0 // indirect
	github.com/quic-go/quic-go v0.42.0 // indirect
	github.com/quic-go/webtransport-go v0.6.0 // indirect
	github.com/raulk/go-watchdog v1.3.0 // indirect
	github.com/spaolacci/murmur3 v1.1.0 // indirect
	github.com/whyrusleeping/go-keyspace v0.0.0-20160322163242-5b898ac5add1 // indirect
	go.opencensus.io v0.24.0 // indirect
	go.opentelemetry.io/otel v1.16.0 // indirect
	go.opentelemetry.io/otel/metric v1.16.0 // indirect
	go.opentelemetry.io/otel/trace v1.16.0 // indirect
	go.uber.org/dig v1.17.1 // indirect
	go.uber.org/fx v1.20.1 // indirect
	go.uber.org/mock v0.4.0 // indirect
	go.uber.org/multierr v1.11.0 // indirect
	go.uber.org/zap v1.27.0 // indirect
	golang.org/x/crypto v0.19.0 // indirect
	golang.org/x/exp v0.0.0-20240213143201-ec583247a57a // indirect
	golang.org/x/mod v0.15.0 // indirect
	golang.org/x/net v0.21.0 // indirect
	golang.org/x/sync v0.6.0 // indirect
	golang.org/x/sys v0.17.0 // indirect
	golang.org/x/text v0.14.0 // indirect
	golang.org/x/tools v0.18.0 // indirect
	gonum.org/v1/gonum v0.13.0 // indirect
	google.golang.org/protobuf v1.32.0 // indirect
	lukechampine.com/blake3 v1.2.1 // indirect
)
